{
  "project_info": {
    "project_number": "229718281890",
    "firebase_url": "https://abastece-ali.firebaseio.com",
    "project_id": "abastece-ali",
    "storage_bucket": "abastece-ali.appspot.com"
  },
  "client": [
    {
      "client_info": {
        "mobilesdk_app_id": "1:229718281890:android:ae3200fa4270b3e1",
        "android_client_info": {
          "package_name": "br.com.lf.abasteceali"
        }
      },
      "oauth_client": [
        {
          "client_id": "229718281890-u2qvd6jamaks2lk37t8l5cso21vkiui0.apps.googleusercontent.com",
          "client_type": 3
        }
      ],
      "api_key": [
        {
          "current_key": "AIzaSyDHRcAg8NEUPXNNtl1hv6fI0uoZbfmf6NQ"
        }
      ],
      "services": {
        "analytics_service": {
          "status": 1
        },
        "appinvite_service": {
          "status": 1,
          "other_platform_oauth_client": []
        },
        "ads_service": {
          "status": 2
        }
      }
    }
  ],
  "configuration_version": "1"
}